{
  "indexes": [
    {
      "collectionGroup": "locations",
      "queryScope": "COLLECTION_GROUP",
      "fields": [
        {
          "fieldPath": "latitude",
          "order": "ASCENDING"
        },
        {
          "fieldPath": "longitude",
          "order": "ASCENDING"
        }
      ]
    },
    {
      "collectionGroup": "users",
      "queryScope": "COLLECTION",
      "fields": [
        {
          "fieldPath": "phone",
          "order": "ASCENDING"
        },
        {
          "fieldPath": "email",
          "order": "ASCENDING"
        }
      ]
    }
  ],
  "fieldOverrides": [
    {
      "collectionGroup": "locations",
      "fieldPath": "latitude",
      "indexes": [
        {
          "order": "ASCENDING",
          "queryScope": "COLLECTION"
        },
        {
          "order": "DESCENDING",
          "queryScope": "COLLECTION"
        },
        {
          "arrayConfig": "CONTAINS",
          "queryScope": "COLLECTION"
        },
        {
          "order": "ASCENDING",
          "queryScope": "COLLECTION_GROUP"
        },
        {
          "order": "DESCENDING",
          "queryScope": "COLLECTION_GROUP"
        },
        {
          "arrayConfig": "CONTAINS",
          "queryScope": "COLLECTION_GROUP"
        }
      ]
    },
    {
      "collectionGroup": "locations",
      "fieldPath": "longitude",
      "indexes": [
        {
          "order": "ASCENDING",
          "queryScope": "COLLECTION"
        },
        {
          "order": "DESCENDING",
          "queryScope": "COLLECTION"
        },
        {
          "arrayConfig": "CONTAINS",
          "queryScope": "COLLECTION"
        },
        {
          "order": "ASCENDING",
          "queryScope": "COLLECTION_GROUP"
        },
        {
          "order": "DESCENDING",
          "queryScope": "COLLECTION_GROUP"
        },
        {
          "arrayConfig": "CONTAINS",
          "queryScope": "COLLECTION_GROUP"
        }
      ]
    },
    {
      "collectionGroup": "users",
      "fieldPath": "phone",
      "indexes": [
        {
          "order": "ASCENDING",
          "queryScope": "COLLECTION"
        },
        {
          "order": "DESCENDING",
          "queryScope": "COLLECTION"
        },
        {
          "arrayConfig": "CONTAINS",
          "queryScope": "COLLECTION"
        }
      ]
    },
    {
      "collectionGroup": "events",
      "fieldPath": "server_timestamp",
      "indexes": [
        {
          "order": "ASCENDING",
          "queryScope": "COLLECTION"
        },
        {
          "order": "DESCENDING",
          "queryScope": "COLLECTION"
        },
        {
          "arrayConfig": "CONTAINS",
          "queryScope": "COLLECTION"
        }
      ]
    },
    {
      "collectionGroup": "contacts",
      "fieldPath": "ref",
      "indexes": [
        {
          "order": "ASCENDING",
          "queryScope": "COLLECTION"
        },
        {
          "order": "DESCENDING",
          "queryScope": "COLLECTION"
        },
        {
          "arrayConfig": "CONTAINS",
          "queryScope": "COLLECTION"
        },
        {
          "order": "ASCENDING",
          "queryScope": "COLLECTION_GROUP"
        },
        {
          "order": "DESCENDING",
          "queryScope": "COLLECTION_GROUP"
        },
        {
          "arrayConfig": "CONTAINS",
          "queryScope": "COLLECTION_GROUP"
        }
      ]
    },
    {
      "collectionGroup": "buddies",
      "fieldPath": "ref",
      "indexes": [
        {
          "order": "ASCENDING",
          "queryScope": "COLLECTION"
        },
        {
          "order": "DESCENDING",
          "queryScope": "COLLECTION"
        },
        {
          "arrayConfig": "CONTAINS",
          "queryScope": "COLLECTION"
        },
        {
          "order": "ASCENDING",
          "queryScope": "COLLECTION_GROUP"
        },
        {
          "order": "DESCENDING",
          "queryScope": "COLLECTION_GROUP"
        },
        {
          "arrayConfig": "CONTAINS",
          "queryScope": "COLLECTION_GROUP"
        }
      ]
    },
    {
      "collectionGroup": "events",
      "fieldPath": "user_profile",
      "indexes": [
        {
          "order": "ASCENDING",
          "queryScope": "COLLECTION"
        },
        {
          "order": "DESCENDING",
          "queryScope": "COLLECTION"
        },
        {
          "arrayConfig": "CONTAINS",
          "queryScope": "COLLECTION"
        },
        {
          "order": "ASCENDING",
          "queryScope": "COLLECTION_GROUP"
        },
        {
          "order": "DESCENDING",
          "queryScope": "COLLECTION_GROUP"
        },
        {
          "arrayConfig": "CONTAINS",
          "queryScope": "COLLECTION_GROUP"
        }
      ]
    }
  ]
}
